{
  "name": "npc gun_merchant name",
  "talk": "npc gun_merchant talk",
  "model": "models/humans/group03/male_04.mdl",
  "animation": "LineIdle02",
  "sprite": "arcrpg/npc_names/self_defense_merchant.vmt",
  "sprite_offset_z": 80
}
