{
  "name": "npc tele_master name",
  "talk": "npc tele_master talk",
  "model": "models/humans/group01/male_03.mdl",
  "animation": "plazaidle4",
  "sprite": "arcrpg/npc_names/tele_master.vmt",
  "sprite_offset_z": 58
}
