{
  "title": "q001 title",
  "desc": "q001 desc",
  "exp_reward": 500,
  "cash_reward": 0,
  "can_be_started_after_failure": true,
  "completed_quests_available_after": [],
  "completed_quests_available_before": ["q001"],
  "started_quests_available_after": [],
  "started_quests_available_before": [],
  "level_restriction_min": 1,
  "level_restriction_max": 1
}
