{
  "qualities": [
    {
      "id": 1,
      "name": "default",
      "color": "#DEDEDE"
    },
    {
      "id": 2,
      "name": "improved",
      "color": "#788AFF"
    },
    {
      "id": 3,
      "name": "admin",
      "color": "#FF0033"
    },
    {
      "id": 4,
      "name": "unique",
      "color": "#3CFF70"
    },
    {
      "id": 11,
      "name": "stat_default",
      "color": "#FFFFFF"
    },
    {
      "id": 12,
      "name": "stat_improved",
      "color": "#788AFF"
    }
  ]
}