{
  "weapon_classes": [
    {
      "id": 1,
      "primary_class_id": 1,
      "quality_id": 1,
      "name": "standard_knife",
      "min_level": 1,
      "description": "standard_knife description",
      "icon": "knife.png",
      "price": 100,
      "equip_region": "knife",
      "entity_classname": "weapon_knife",
      "stats": [
        {
          "name": "damage",
          "value1": 1,
          "quality_id": 11
        },
        {
          "name": "attack_rate",
          "value1": 2,
          "quality_id": 11
        },
        {
          "name": "attack_rate_alt",
          "value1": 1,
          "quality_id": 11
        },
        {
          "name": "exp",
          "value1": 1.5,
          "quality_id": 11
        }
      ],
      "bot_stats_number": [
        {
          "number": 0,
          "possibility": 4
        },
        {
          "number": 1,
          "possibility": 2
        },
        {
          "number": 2,
          "possibility": 2
        },
        {
          "number": 3,
          "possibility": 1
        }
      ],
      "bot_stats_distribution": [
        {
          "name": "damage",
          "value1": 1.25,
          "quality_id": 12,
          "possibility": 1
        },
        {
          "name": "attack_rate",
          "value1": 4,
          "quality_id": 12,
          "possibility": 1
        },
        {
          "name": "attack_rate_alt",
          "value1": 2,
          "quality_id": 12,
          "possibility": 1
        }
      ]
    },
    {
      "id": 2,
      "primary_class_id": 1,
      "quality_id": 1,
      "name": "steel_knife",
      "min_level": 1,
      "description": "steel_knife description",
      "icon": "steel_knife.png",
      "price": 500,
      "equip_region": "knife",
      "entity_classname": "weapon_knife",
      "stats": [
        {
          "name": "damage",
          "value1": 1.5,
          "quality_id": 11
        },
        {
          "name": "attack_rate",
          "value1": 2,
          "quality_id": 11
        },
        {
          "name": "attack_rate_alt",
          "value1": 1,
          "quality_id": 11
        },
        {
          "name": "exp",
          "value1": 1.5,
          "quality_id": 11
        }
      ],
      "craft_stats_number": [
        {
          "number": 0,
          "possibility": 4
        },
        {
          "number": 1,
          "possibility": 2
        },
        {
          "number": 2,
          "possibility": 2
        },
        {
          "number": 3,
          "possibility": 1
        }
      ],
      "craft_stats_distribution": [
        {
          "name": "damage",
          "value1": 1.25,
          "quality_id": 12,
          "possibility": 1
        },
        {
          "name": "attack_rate",
          "value1": 4,
          "quality_id": 12,
          "possibility": 1
        },
        {
          "name": "attack_rate_alt",
          "value1": 2,
          "quality_id": 12,
          "possibility": 1
        }
      ]
    }
  ]
}